<?xml version="1.0" encoding="UTF-8" standalone="no"?>
<!-- Created with Inkscape (http://www.inkscape.org/) -->

<svg
   width="500"
   height="500"
   viewBox="0 0 132.29166 132.29167"
   version="1.1"
   id="svg5"
   inkscape:version="1.1 (c68e22c387, 2021-05-23)"
   sodipodi:docname="highlight-notification.svg"
   xmlns:inkscape="http://www.inkscape.org/namespaces/inkscape"
   xmlns:sodipodi="http://sodipodi.sourceforge.net/DTD/sodipodi-0.dtd"
   xmlns="http://www.w3.org/2000/svg"
   xmlns:svg="http://www.w3.org/2000/svg">
  <sodipodi:namedview
     id="namedview7"
     pagecolor="#5cdb95"
     bordercolor="#eeeeee"
     borderopacity="1"
     inkscape:pageshadow="0"
     inkscape:pageopacity="0"
     inkscape:pagecheckerboard="false"
     inkscape:document-units="mm"
     showgrid="false"
     units="px"
     width="500px"
     inkscape:zoom="1.4142136"
     inkscape:cx="-69.650018"
     inkscape:cy="249.60869"
     inkscape:window-width="3440"
     inkscape:window-height="1339"
     inkscape:window-x="0"
     inkscape:window-y="32"
     inkscape:window-maximized="1"
     inkscape:current-layer="layer3" />
  <defs
     id="defs2" />
  <g
     inkscape:groupmode="layer"
     id="layer3"
     inkscape:label="Voting"
     style="display:none">
    <g
       inkscape:groupmode="layer"
       id="layer6"
       inkscape:label="Thumbs 1">
      <path
         fill="currentColor"
         d="m 43.553869,44.28488 -3.116689,0.547195 c -0.516382,0.09066 -0.861495,0.582761 -0.770832,1.099153 l 1.641574,9.350008 c 0.09066,0.516392 0.582764,0.861505 1.099146,0.770845 l 3.116689,-0.547195 c 0.516382,-0.09066 0.861485,-0.582762 0.770822,-1.099154 l -1.641574,-9.350007 c -0.09066,-0.516393 -0.582754,-0.861506 -1.099136,-0.770845 z m 0.137938,9.93527 c -0.516382,0.09066 -1.008484,-0.254451 -1.099146,-0.770844 -0.09066,-0.516393 0.254449,-1.008498 0.770831,-1.099159 0.516401,-0.09066 1.008504,0.254452 1.099166,0.770844 0.09066,0.516394 -0.25445,1.008495 -0.770851,1.099159 z M 53.48719,36.816275 c 0.29012,1.652456 -0.55888,2.756985 -0.649723,3.911046 l 3.962965,-0.695775 c 1.301099,-0.228433 2.503786,0.674671 2.717477,1.856065 0.126634,0.698144 -0.0392,1.502774 -0.420814,2.049596 l -0.0032,0.0049 c 0.542811,0.841893 0.704198,2.126768 0.180945,3.159644 0.515307,0.949455 0.39075,2.248748 -0.126898,3.024466 0.287778,0.656198 0.310271,1.253712 0.06576,1.780841 -0.594575,1.282016 -2.562477,1.644107 -4.228997,1.936697 l -0.110812,0.01941 c -1.881281,0.329688 -3.541147,-0.085 -4.874872,-0.418172 -0.670218,-0.167421 -1.543154,-0.367079 -2.161842,-0.270142 -0.25564,0.03991 -0.496374,-0.132001 -0.541114,-0.386827 l -1.462163,-8.328131 c -0.02189,-0.124669 0.007,-0.253075 0.08036,-0.356305 1.275545,-1.795939 1.655679,-3.526999 2.6982,-5.016172 0.47527,-0.679084 0.531781,-1.588733 0.586376,-2.468408 0.04662,-0.751171 0.140323,-2.3456 0.926626,-2.483651 0.935009,-0.164158 2.859716,-0.180804 3.36212,2.680767 z"
         id="path32465-6-2-6"
         style="display:inline;fill:#135180;fill-opacity:0.812675;stroke-width:0.0395542" />
      <path
         style="display:inline;fill:#135180;fill-opacity:0.812675;stroke:none;stroke-width:0.0681852"
         d="m 41.905846,55.948159 c -0.494385,-0.193886 -0.429885,0.06113 -1.373714,-5.431852 l -0.853217,-4.968436 0.136027,-0.211437 c 0.255788,-0.397776 0.398838,-0.447421 2.200167,-0.763562 1.861784,-0.326749 1.997258,-0.323204 2.365496,0.06211 l 0.192444,0.201445 0.861691,4.909429 c 0.833848,4.750784 0.859217,4.917026 0.768284,5.147457 -0.176259,0.449424 -0.267403,0.483014 -2.258882,0.832369 -1.666674,0.292411 -1.817467,0.308938 -2.037894,0.222393 z m 2.169542,-1.86372 c 0.383946,-0.245876 0.5353,-0.762382 0.353201,-1.20538 -0.113676,-0.27679 -0.465698,-0.519894 -0.811556,-0.560648 -0.816643,-0.09623 -1.373581,0.885538 -0.873713,1.540144 0.325266,0.425949 0.874255,0.519045 1.332068,0.225884 z"
         id="path35368-7-6-6" />
      <path
         fill="currentColor"
         d="m 79.039432,61.01891 -2.901508,-1.262705 c -0.48073,-0.209209 -1.040031,0.0109 -1.249244,0.49164 l -3.788091,8.704469 c -0.209214,0.480738 0.0109,1.040041 0.491627,1.249251 l 2.901508,1.262705 c 0.48073,0.209209 1.040024,-0.01091 1.249236,-0.491647 l 3.788091,-8.704468 c 0.209215,-0.480739 -0.01089,-1.040036 -0.491619,-1.249245 z m -5.365122,8.363258 c -0.48073,-0.209209 -0.700841,-0.76851 -0.491628,-1.24925 0.209216,-0.480739 0.768516,-0.700854 1.249247,-0.491645 0.480745,0.20922 0.700857,0.768521 0.491644,1.249261 -0.209216,0.480739 -0.768515,0.70085 -1.249263,0.491634 z m 17.770264,-9.113841 c -0.669481,1.538368 -1.986891,1.991375 -2.699232,2.903889 l 3.689356,1.605567 c 1.211269,0.527132 1.716309,1.943814 1.242909,3.047103 -0.279461,0.652184 -0.86161,1.231867 -1.481541,1.477486 l -0.0054,0.0023 c -0.01161,1.001645 -0.585717,2.1624 -1.591894,2.735319 -0.09388,1.076193 -0.914452,2.09125 -1.774107,2.452761 -0.121911,0.706081 -0.432731,1.216884 -0.92744,1.521701 -1.20309,0.74139 -3.044275,-0.04206 -4.595736,-0.717234 l -0.103136,-0.04493 C 81.447321,74.489614 80.291537,73.228153 79.362829,72.214582 78.896136,71.705249 78.278135,71.05721 77.708608,70.796805 77.47336,70.689087 77.367384,70.412907 77.470625,70.175674 l 3.374085,-7.753143 c 0.05051,-0.116063 0.145432,-0.207233 0.263563,-0.252874 2.054573,-0.794447 3.326481,-2.028675 5.017475,-2.695777 0.771006,-0.304281 1.319894,-1.031864 1.850651,-1.735501 0.453224,-0.600849 1.410852,-1.879103 2.142867,-1.560538 0.870454,0.378813 2.485066,1.426574 1.32572,4.090578 z"
         id="path32465-6-2-6-2"
         style="display:inline;fill:#206b94;fill-opacity:0.542738;stroke-width:0.0395542" />
      <path
         style="display:inline;fill:#05386b;fill-opacity:1;stroke:none;stroke-width:0.0681852"
         d="m 72.240566,63.895063 c -0.494385,-0.193886 -0.429885,0.06113 -1.373714,-5.431852 l -0.853217,-4.968436 0.136027,-0.211437 c 0.255788,-0.397776 0.398838,-0.447421 2.200167,-0.763562 1.861784,-0.326749 1.997258,-0.323204 2.365496,0.06211 l 0.192444,0.201445 0.861691,4.909429 c 0.833848,4.750784 0.859217,4.917026 0.768284,5.147457 -0.176259,0.449424 -0.267403,0.483014 -2.258882,0.832369 -1.666674,0.292411 -1.817467,0.308938 -2.037894,0.222393 z m 2.169542,-1.86372 c 0.383946,-0.245876 0.5353,-0.762382 0.353201,-1.20538 -0.113676,-0.27679 -0.465698,-0.519894 -0.811556,-0.560648 -0.816643,-0.09623 -1.373581,0.885538 -0.873713,1.540144 0.325266,0.425949 0.874255,0.519045 1.332068,0.225884 z"
         id="path35368-7-6-6-8" />
      <path
         fill="currentColor"
         d="m 50.037045,80.148609 3.0455,-0.859174 c 0.50458,-0.14235 1.02902,0.151295 1.17138,0.655891 l 2.5775,9.136405 c 0.14235,0.504595 -0.1513,1.029033 -0.65588,1.171383 l -3.0455,0.85918 c -0.50458,0.14235 -1.02901,-0.1513 -1.17136,-0.6559 l -2.57751,-9.136404 c -0.14235,-0.504595 0.1513,-1.029033 0.65587,-1.171381 z m 4.18617,9.011359 c 0.50459,-0.142351 0.79824,-0.666791 0.65589,-1.171387 -0.14236,-0.504596 -0.6668,-0.798246 -1.17139,-0.655895 -0.5046,0.142355 -0.79825,0.666799 -0.65589,1.171395 0.14235,0.504596 0.66679,0.798242 1.17139,0.655887 z m -16.3762,-11.430849 c 0.45553,1.614706 1.69968,2.241527 2.28221,3.241906 l -3.87243,1.092464 c -1.27137,0.35867 -1.96316,1.694141 -1.64314,2.851268 0.18899,0.683903 0.6873,1.336968 1.26837,1.664081 l 0.005,0.0031 c -0.12381,0.994034 0.28824,2.221701 1.20779,2.925292 -0.0524,1.079014 0.62338,2.195664 1.42651,2.669934 0.0254,0.71608 0.26442,1.26418 0.71338,1.63304 1.0919,0.89712 3.02204,0.36958 4.65049,-0.0898 l 0.10827,-0.0306 c 1.83803,-0.51915 3.15364,-1.61292 4.21075,-2.49174 0.53122,-0.44162 1.2311,-1.00024 1.83058,-1.18132 0.24765,-0.07496 0.38996,-0.334284 0.31971,-0.583288 l -2.2958,-8.137894 c -0.0344,-0.121821 -0.11613,-0.224964 -0.22699,-0.286161 -1.92842,-1.064712 -3.02194,-2.459445 -4.60731,-3.348866 -0.72283,-0.405645 -1.1684,-1.200708 -1.59924,-1.969595 -0.36791,-0.656565 -1.14408,-2.052466 -1.91242,-1.835706 -0.91365,0.257752 -2.655,1.077793 -1.86615,3.873991 z"
         id="path32465-6-2"
         style="display:inline;fill:#135180;fill-opacity:0.35312;stroke-width:0.0395542" />
      <path
         style="display:inline;fill:#135180;fill-opacity:0.35312;stroke:none;stroke-width:0.0681852"
         d="m 56.582045,89.94203 c 0.36132,-0.389179 0.41384,-0.131432 -1.11893,-5.490001 l -1.38687,-4.846639 -0.21429,-0.131486 c -0.40305,-0.247413 -0.55347,-0.230082 -2.31359,0.266593 -1.81921,0.513347 -1.93972,0.575316 -2.10433,1.082239 l -0.086,0.264992 1.3536,4.797163 c 1.30986,4.642143 1.35893,4.802993 1.54103,4.971093 0.3538,0.32846 0.45049,0.31918 2.39635,-0.23007 1.6285,-0.45963 1.77153,-0.51016 1.93259,-0.683774 z m -2.7633,-0.737919 c -0.4526,-0.05495 -0.81306,-0.454651 -0.84118,-0.932791 -0.0177,-0.298694 0.19402,-0.67046 0.48795,-0.85723 0.69404,-0.44101 1.62177,0.201922 1.4554,1.008582 -0.10826,0.524889 -0.5625,0.846948 -1.10217,0.781439 z"
         id="path35368-7-6" />
      <path
         fill="currentColor"
         d="m 100.00386,113.09918 2.91552,-1.23004 c 0.48304,-0.20379 1.03984,0.0226 1.24364,0.50564 l 3.69009,8.74647 c 0.20379,0.48306 -0.0226,1.03985 -0.50563,1.24365 l -2.91552,1.23004 c -0.48304,0.2038 -1.03983,-0.0226 -1.24363,-0.50565 l -3.690091,-8.74647 c -0.203797,-0.48305 0.02258,-1.03985 0.505621,-1.24364 z m 5.27085,8.42299 c 0.48305,-0.2038 0.70943,-0.76059 0.50564,-1.24365 -0.20381,-0.48306 -0.7606,-0.70944 -1.24366,-0.50564 -0.48306,0.2038 -0.70944,0.7606 -0.50563,1.24366 0.20379,0.48306 0.76059,0.70944 1.24365,0.50563 z m -17.666774,-9.31286 c 0.652161,1.54579 1.964411,2.01356 2.666446,2.93403 l -3.707156,1.56402 c -1.217109,0.51349 -1.738032,1.92441 -1.277053,3.03295 0.272303,0.6552 0.847718,1.24147 1.464853,1.49403 l 0.0053,0.002 c 3.56e-4,1.00172 0.561398,2.16884 1.561067,2.75303 0.08175,1.07719 0.890727,2.10146 1.74645,2.47253 0.113962,0.70741 0.419076,1.22166 0.910294,1.53202 1.194679,0.75486 3.044545,-0.008 4.603497,-0.66554 l 0.103642,-0.0438 c 1.759507,-0.74297 2.929398,-1.99138 3.869426,-2.99445 0.472388,-0.50406 1.097628,-1.14512 1.670038,-1.39911 0.23644,-0.10512 0.34552,-0.38005 0.24495,-0.61842 l -3.286795,-7.79057 c -0.04924,-0.11662 -0.14312,-0.20884 -0.260709,-0.25582 -2.045521,-0.81748 -3.303486,-2.06591 -4.986875,-2.75197 -0.767535,-0.31292 -1.308218,-1.04662 -1.831039,-1.75617 -0.446455,-0.6059 -1.389662,-1.89483 -2.125209,-1.58451 -0.874656,0.36901 -2.500933,1.39857 -1.371576,4.07543 z"
         id="path32465-6-2-2"
         style="display:inline;fill:#135180;fill-opacity:0.224982;stroke-width:0.0395542" />
      <path
         style="display:inline;fill:#135180;fill-opacity:0.224982;stroke:none;stroke-width:0.0681852"
         d="m 107.71228,122.00582 c 0.3103,-0.43095 0.39436,-0.18171 -1.79078,-5.30897 l -1.97692,-4.63736 -0.22894,-0.10391 c -0.43061,-0.19555 -0.57772,-0.1597 -2.2627,0.55131 -1.741553,0.73488 -1.853453,0.81131 -1.95396,1.33472 l -0.05249,0.27361 1.93777,4.5924 c 1.87516,4.44398 1.94379,4.59751 2.14532,4.74174 0.39178,0.28207 0.48658,0.26088 2.34935,-0.52532 1.55897,-0.65794 1.69464,-0.72581 1.83293,-0.91806 z m -2.83345,-0.38971 c -0.45593,0.002 -0.86315,-0.35037 -0.95031,-0.82134 -0.0546,-0.29419 0.10942,-0.68934 0.37793,-0.9111 0.63402,-0.52364 1.63429,-6.5e-4 1.56919,0.82041 -0.0424,0.53427 -0.45318,0.91014 -0.99681,0.91203 z"
         id="path35368-7-6-7" />
      <path
         fill="currentColor"
         d="m 25.893935,101.59885 2.900922,1.19021 c 0.480627,0.19719 0.710395,0.74668 0.513199,1.22732 l -3.5706,8.70268 c -0.197205,0.48064 -0.746688,0.7104 -1.227316,0.51321 l -2.900926,-1.19021 c -0.480628,-0.19719 -0.710385,-0.74667 -0.513178,-1.22731 l 3.57059,-8.70269 c 0.197204,-0.48064 0.746688,-0.7104 1.227309,-0.51321 z m -2.239154,9.58787 c 0.480636,0.1972 1.030122,-0.0326 1.227325,-0.5132 0.197197,-0.48065 -0.03257,-1.03014 -0.513205,-1.22734 -0.480646,-0.1972 -1.030134,0.0326 -1.227331,0.51322 -0.197203,0.48064 0.03256,1.03012 0.513211,1.22732 z M 17.86158,92.264194 c -0.631044,1.538052 -0.04331,2.78715 -0.199973,3.923501 l -3.688599,-1.513384 c -1.211015,-0.496865 -2.56659,0.122426 -3.023816,1.220698 -0.270357,0.649025 -0.280548,1.462958 -0.02704,2.073147 l 0.0021,0.0055 c -0.703859,0.699891 -1.1323794,1.909419 -0.844793,3.020114 -0.7000623,0.80981 -0.8550033,2.09384 -0.5181517,2.9545 -0.4176438,0.57419 -0.5660044,1.14783 -0.4410741,1.70988 0.3038217,1.36697 2.1319618,2.13453 3.6830898,2.77097 l 0.103164,0.0423 c 1.751153,0.71784 3.445764,0.66822 4.807382,0.62838 0.684238,-0.02 1.571538,-0.0283 2.149866,0.19667 0.239006,0.0928 0.508456,-0.0226 0.605768,-0.25975 l 3.180378,-7.75157 c 0.04758,-0.11606 0.04683,-0.24646 -0.0023,-0.36193 -0.854076,-2.008761 -0.855166,-3.764949 -1.548686,-5.427377 -0.316127,-0.758061 -0.178041,-1.650558 -0.04446,-2.513635 0.114065,-0.737 0.36128,-2.300227 -0.370585,-2.600501 -0.870278,-0.357064 -2.72982,-0.781091 -3.822598,1.882369 z"
         id="path32465-6-2-67"
         style="display:inline;fill:#135180;fill-opacity:0.727686;stroke-width:0.0391945" />
      <path
         style="display:inline;fill:#135180;fill-opacity:0.727686;stroke:none;stroke-width:0.0675651"
         d="m 25.017328,113.2379 c 0.519649,-0.0828 0.403166,0.15028 2.480927,-4.96676 l 1.878848,-4.62852 -0.08686,-0.23349 c -0.163304,-0.43926 -0.291247,-0.51763 -1.967887,-1.2054 -1.732923,-0.71087 -1.864801,-0.73615 -2.30291,-0.44122 l -0.228982,0.15421 -1.87458,4.56959 c -1.814002,4.42192 -1.873983,4.57739 -1.834606,4.81978 0.07537,0.4724 0.156472,0.52423 2.010142,1.28446 1.551319,0.63627 1.693778,0.68423 1.925496,0.64717 z m -1.705075,-2.26383 c -0.31954,-0.31937 -0.356584,-0.85142 -0.08642,-1.24164 0.168665,-0.24384 0.560961,-0.40455 0.904381,-0.3707 0.810895,0.0799 1.14192,1.14829 0.519325,1.676 -0.405123,0.34337 -0.956263,0.31713 -1.337283,-0.0637 z"
         id="path35368-7-6-5" />
      <path
         fill="currentColor"
         d="m 41.376165,22.281192 2.074819,0.182491 c 0.343757,0.03023 0.597918,0.333414 0.567686,0.677183 l -0.547459,6.224393 c -0.03024,0.343768 -0.33342,0.597926 -0.677178,0.567692 l -2.074821,-0.182485 c -0.343757,-0.03023 -0.597911,-0.333415 -0.567672,-0.677185 l 0.547454,-6.224396 c 0.03024,-0.343767 0.333419,-0.597925 0.677171,-0.567693 z m 0.471704,6.523117 c 0.343764,0.03024 0.646947,-0.223924 0.677184,-0.567692 0.03023,-0.34377 -0.223927,-0.646952 -0.567692,-0.677187 -0.343772,-0.03024 -0.646954,0.223926 -0.677187,0.567696 -0.03024,0.343767 0.223924,0.646947 0.567695,0.677183 z M 34.439546,17.94551 c -0.09676,1.100057 0.522503,1.776346 0.647368,2.528009 L 32.448727,20.24148 c -0.86615,-0.07618 -1.603746,0.584102 -1.677032,1.370924 -0.04341,0.465004 0.110735,0.983265 0.39193,1.320265 l 0.0024,0.003 c -0.308329,0.582808 -0.341456,1.43453 0.06012,2.082257 -0.28423,0.65178 -0.129132,1.496773 0.25435,1.97619 -0.151595,0.446601 -0.132503,0.839716 0.05764,1.171555 0.462445,0.807071 1.773431,0.933176 2.882845,1.030771 l 0.07378,0.0065 c 1.252346,0.109754 2.317391,-0.256106 3.17316,-0.550058 0.430039,-0.147712 0.991195,-0.328039 1.402398,-0.299477 0.169908,0.0117 0.31804,-0.114655 0.332963,-0.284288 l 0.487633,-5.544133 c 0.0073,-0.083 -0.01893,-0.16556 -0.07286,-0.229112 -0.938091,-1.105561 -1.28532,-2.219239 -2.053237,-3.136814 -0.350094,-0.418433 -0.438627,-1.01176 -0.524199,-1.585545 -0.07308,-0.489964 -0.224744,-1.530248 -0.748192,-1.576288 -0.622447,-0.05475 -1.885564,0.04324 -2.053111,1.948218 z"
         id="path32465-6-2-67-6"
         style="display:inline;fill:#135180;fill-opacity:0.241672;stroke-width:0.0260351" />
      <path
         style="display:inline;fill:#135180;fill-opacity:0.241672;stroke:none;stroke-width:0.0448803"
         d="m 43.116838,29.836443 c 0.313239,-0.155117 0.285367,0.01576 0.593504,-3.639805 l 0.278371,-3.30646 -0.101163,-0.13096 c -0.190254,-0.246381 -0.286869,-0.270843 -1.486022,-0.376236 -1.239408,-0.108932 -1.328042,-0.09894 -1.547723,0.174576 l -0.114808,0.142988 -0.287291,3.268243 c -0.278007,3.162629 -0.285373,3.273074 -0.212567,3.419048 0.141025,0.284752 0.202689,0.301624 1.528423,0.418038 1.109504,0.09745 1.209323,0.09976 1.348982,0.03053 z m -1.528185,-1.099425 c -0.265694,-0.139512 -0.394175,-0.469663 -0.299821,-0.770473 0.05886,-0.187947 0.275972,-0.367286 0.50047,-0.413582 0.530098,-0.109313 0.95087,0.502996 0.660108,0.960555 -0.189201,0.29773 -0.543946,0.389848 -0.860757,0.2235 z"
         id="path35368-7-6-5-9" />
    </g>
    <g
       inkscape:label="Head"
       inkscape:groupmode="layer"
       id="layer1"
       style="display:inline">
      <g
         id="g8420"
         transform="matrix(1.6772525,0,0,1.6772525,33.513767,37.537375)">
        <g
           id="g8355">
	<path
   style="fill:#206b94;fill-opacity:1"
   d="M 4.511,38.5 C 4.774,32.39 9.826,27.5 16,27.5 h 8 c 6.174,0 11.227,4.89 11.489,11 z"
   id="path8349" />

	<g
   id="g8353">
		<path
   style="fill:#05386b;fill-opacity:1"
   d="m 24,28 c 5.729,0 10.448,4.401 10.955,10 H 5.045 C 5.552,32.401 10.271,28 16,28 h 8 m 0,-1 H 16 C 9.373,27 4,32.373 4,39 H 36 C 36,32.373 30.627,27 24,27 Z"
   id="path8351" />

	</g>

</g>
        <g
           id="g8363">
	<path
   style="fill:#2bc26e;fill-opacity:1"
   d="m 20,30.5 c -3.219,0 -4.309,-2.102 -4.5,-2.537 V 22.5 h 9 v 5.464 C 24.312,28.394 23.223,30.5 20,30.5 Z"
   id="path8357" />

	<g
   id="g8361">
		<path
   style="fill:#05386b;fill-opacity:1"
   d="m 24,23 v 4.854 C 23.759,28.343 22.738,30 20,30 17.27,30 16.244,28.343 16,27.853 V 23 h 8 m 1,-1 H 15 v 6.062 c 0,0 1.066,2.938 5,2.938 3.934,0 5,-2.938 5,-2.938 z"
   id="path8359" />

	</g>

</g>
        <g
           id="g8373">
	<g
   id="g8367">
		<path
   style="fill:#2ece76;fill-opacity:1"
   d="m 27.143,19.214 c -1.3,0 -2.356,-1.057 -2.356,-2.356 0,-1.299 1.057,-2.357 2.356,-2.357 1.963,0 2.357,0.537 2.357,1.404 0,1.413 -1.165,3.309 -2.357,3.309 z m -14.286,0 c -1.192,0 -2.357,-1.896 -2.357,-3.31 0,-0.867 0.395,-1.404 2.357,-1.404 1.3,0 2.356,1.058 2.356,2.357 0,1.299 -1.056,2.357 -2.356,2.357 z"
   id="path8365" />

	</g>

	<g
   id="g8371">
		<path
   style="fill:#05386b;fill-opacity:1"
   d="M 27.143,15 C 29,15 29,15.481 29,15.905 c 0,1.234 -1.041,2.81 -1.857,2.81 -1.024,0 -1.857,-0.833 -1.857,-1.857 0,-1.024 0.833,-1.858 1.857,-1.858 m -14.286,0 c 1.024,0 1.857,0.833 1.857,1.857 0,1.024 -0.833,1.857 -1.857,1.857 C 12.041,18.714 11,17.139 11,15.904 11,15.481 11,15 12.857,15 m 14.286,-1 c -1.578,0 -2.857,1.279 -2.857,2.857 0,1.578 1.279,2.857 2.857,2.857 1.578,0 2.857,-2.232 2.857,-3.81 C 30,14.327 28.721,14 27.143,14 Z M 12.857,14 C 11.279,14 10,14.327 10,15.905 c 0,1.578 1.279,3.81 2.857,3.81 1.578,0 2.857,-1.279 2.857,-2.857 C 15.714,15.28 14.435,14 12.857,14 Z"
   id="path8369" />

	</g>

</g>
        <g
           id="g8383">
	<g
   id="g8377">
		<path
   style="fill:#2ece76;fill-opacity:1"
   d="m 20,26.5 c -0.604,0 -1.172,-0.218 -1.642,-0.631 L 18.267,25.79 18.151,25.761 C 14.824,24.916 12.5,21.931 12.5,18.5 V 9.201 c 0,-1.826 1.486,-3.313 3.312,-3.313 h 8.375 c 1.826,0 3.313,1.486 3.313,3.313 V 18.5 c 0,3.431 -2.324,6.416 -5.651,7.261 l -0.116,0.029 -0.091,0.079 C 21.172,26.282 20.604,26.5 20,26.5 Z"
   id="path8375" />

	</g>

	<g
   id="g8381">
		<path
   style="fill:#05386b;fill-opacity:1"
   d="M 24.187,6.389 C 25.738,6.389 27,7.651 27,9.202 V 18.5 c 0,3.201 -2.169,5.987 -5.275,6.776 l -0.233,0.059 -0.181,0.159 C 21.048,25.725 20.608,26 20,26 19.392,26 18.952,25.725 18.689,25.494 L 18.508,25.335 18.275,25.276 C 15.169,24.487 13,21.701 13,18.5 V 9.202 c 0,-1.551 1.262,-2.813 2.813,-2.813 h 8.374 m 0,-1 H 15.812 C 13.707,5.389 12,7.096 12,9.202 V 18.5 c 0,3.737 2.566,6.866 6.029,7.745 C 18.557,26.709 19.242,27 20,27 20.758,27 21.443,26.709 21.971,26.245 25.434,25.366 28,22.237 28,18.5 V 9.202 C 28,7.096 26.293,5.389 24.187,5.389 Z"
   id="path8379" />

	</g>

</g>
        <g
           id="g8391">
	<path
   style="fill:#206b94;fill-opacity:1"
   d="M 27.5,17.5 V 14 c 0,-3.635 -3.033,-5.582 -3.163,-5.663 l -0.398,-0.25 -0.274,0.384 c -0.085,0.118 -2.119,2.886 -6.514,2.886 -1.15,0 -4.65,0 -4.65,3.644 v 2.5 h -0.179 c -0.436,-0.981 -1.821,-4.332 -1.821,-7.188 0,-5.271 3.617,-8.812 9,-8.812 3.839,0 4.992,2.585 5.039,2.695 L 24.671,4.499 25,4.5 c 1.671,0 4.5,1.161 4.5,5.515 0,2.621 -1.407,6.394 -1.838,7.485 z"
   id="path8385" />

	<g
   id="g8389">
		<path
   style="fill:#05386b;fill-opacity:1"
   d="m 19.5,2 c 3.483,0 4.538,2.297 4.577,2.385 L 24.334,5 H 25 c 1.845,0 4,1.313 4,5.015 0,1.536 -0.507,3.498 -1,5.043 V 14 C 28,10.091 24.742,8.001 24.603,7.914 L 23.802,7.41 23.255,8.182 C 23.236,8.209 21.314,10.856 17.15,10.856 13.733,10.857 12,12.251 12,15 v 0.314 C 11.509,13.892 11,12.009 11,10.311 11,5.34 14.416,2 19.5,2 m 0,-1 C 13.681,1 10,4.981 10,10.311 10,13.842 12,18 12,18 h 1 c 0,0 0,-2.029 0,-3 0,-2.668 2.024,-3.143 4.15,-3.143 4.73,0 6.922,-3.096 6.922,-3.096 0,0 2.928,1.838 2.928,5.239 0,1.069 0,4 0,4 h 1 c 0,0 2,-4.768 2,-7.985 C 30,5.498 27.123,4 25,4 25,4 23.747,1 19.5,1 Z"
   id="path8387" />

	</g>

</g>
      </g>
    </g>
    <g
       inkscape:groupmode="layer"
       id="layer2"
       inkscape:label="Thumbs"
       style="display:inline">
      <path
         fill="currentColor"
         d="m 93.744887,85.54759 -4.061599,-0.897635 c -0.67295,-0.148726 -1.339036,0.276232 -1.487762,0.949185 l -2.692897,12.184754 c -0.148726,0.672954 0.276233,1.339039 0.949183,1.487765 l 4.061605,0.897641 c 0.67295,0.14872 1.33904,-0.276241 1.48776,-0.949191 l 2.6929,-12.184754 c 0.14873,-0.672953 -0.27624,-1.339039 -0.94919,-1.487765 z m -4.813474,12.142091 c -0.672951,-0.148726 -1.097907,-0.814809 -0.949181,-1.487765 0.148727,-0.672954 0.81481,-1.097913 1.487761,-0.949187 0.672974,0.14873 1.097934,0.814816 0.949204,1.487771 -0.14872,0.672955 -0.814813,1.097911 -1.487784,0.949181 z M 109.55986,81.452166 c -0.47593,2.15345 -2.06137,3.069975 -2.75033,4.426802 l 5.16446,1.141373 c 1.69556,0.374729 2.70425,2.075118 2.37162,3.617835 -0.19737,0.911571 -0.80108,1.806451 -1.53893,2.279608 l -0.007,0.0043 c 0.23751,1.295175 -0.21057,2.937411 -1.36423,3.930187 0.15016,1.412089 -0.65137,2.928758 -1.67052,3.611589 0.0208,0.94167 -0.25156,1.67901 -0.81293,2.19697 -1.36524,1.25976 -3.9381,0.71314 -6.10989,0.23317 l -0.14444,-0.032 c -2.45134,-0.54257 -4.260443,-1.87867 -5.714063,-2.952181 -0.73049,-0.53947 -1.69114,-1.219731 -2.49156,-1.412125 -0.33068,-0.07953 -0.53699,-0.409259 -0.46359,-0.741344 l 2.39857,-10.853017 c 0.0359,-0.162454 0.13549,-0.303982 0.27618,-0.392702 2.4504,-1.54285 3.780213,-3.455777 5.793593,-4.742696 0.91801,-0.586911 1.44274,-1.663947 1.9501,-2.705524 0.43335,-0.889396 1.3465,-2.779921 2.37119,-2.553458 1.21847,0.269288 3.56565,1.214025 2.74149,4.943168 z"
         id="path32465"
         style="fill:#206b94;fill-opacity:0.643318;stroke-width:0.0519948" />
      <path
         style="fill:#05386b;fill-opacity:1;stroke:none;stroke-width:0.0896309"
         d="m 85.894831,98.894085 c -0.503549,-0.483465 -0.553018,-0.141258 1.054014,-7.289281 l 1.453605,-6.465326 0.271196,-0.188739 c 0.510249,-0.35512 0.708954,-0.343732 3.056371,0.175213 2.42619,0.536363 2.58903,0.6086 2.84332,1.261431 l 0.13293,0.341284 -1.41427,6.397751 c -1.36858,6.191011 -1.42181,6.405581 -1.64708,6.640171 -0.43949,0.457751 -0.5671,0.452871 -3.162238,-0.12105 -2.171853,-0.480264 -2.363361,-0.53585 -2.587842,-0.751459 z m 3.570726,-1.177007 c 0.58983,-0.106271 1.0327,-0.658042 1.03352,-1.287648 6e-4,-0.393344 -0.30525,-0.865238 -0.705088,-1.088155 -0.944106,-0.52637 -2.11309,0.387417 -1.83385,1.433484 0.181692,0.680666 0.802132,1.069032 1.505418,0.942319 z"
         id="path35368" />
      <path
         fill="currentColor"
         d="m 94.07095,24.300163 h -2.693561 c -0.446278,0 -0.808054,0.361774 -0.808054,0.80806 v 8.080624 c 0,0.446286 0.361776,0.808062 0.808054,0.808062 h 2.693561 c 0.446271,0 0.808044,-0.361776 0.808044,-0.808062 v -8.080624 c 0,-0.446286 -0.361773,-0.80806 -0.808044,-0.80806 z m -1.346789,8.349975 c -0.446277,0 -0.808053,-0.361775 -0.808053,-0.808062 0,-0.446285 0.361776,-0.808063 0.808053,-0.808063 0.446294,0 0.80807,0.361778 0.80807,0.808063 0,0.446287 -0.361776,0.808062 -0.80807,0.808062 z M 103.49833,19.500676 c 0,1.428114 -0.87438,2.229176 -1.12041,3.183361 h 3.42494 c 1.12446,0 1.99985,0.934188 2.00511,1.956116 0.003,0.60396 -0.25407,1.254147 -0.6545,1.656427 l -0.003,0.0037 c 0.33117,0.785739 0.27734,1.886725 -0.31338,2.675662 0.29227,0.871868 -0.003,1.942853 -0.55158,2.517015 0.14468,0.592512 0.0755,1.096776 -0.20701,1.502726 -0.68718,0.987315 -2.39036,1.001223 -3.83063,1.001223 l -0.0958,-3.6e-5 c -1.62578,-5.08e-4 -2.95637,-0.59251 -4.025515,-1.068154 -0.537259,-0.239019 -1.239734,-0.534905 -1.772711,-0.544702 -0.220203,-0.0042 -0.396728,-0.183732 -0.396728,-0.403963 v -7.19748 c 0,-0.107744 0.04315,-0.21114 0.119822,-0.286896 1.333764,-1.31795 1.907274,-2.713306 3.000511,-3.808363 0.498425,-0.499383 0.679699,-1.253709 0.854957,-1.983188 0.149654,-0.622915 0.462914,-1.945882 1.142464,-1.945882 0.80807,0 2.42418,0.269355 2.42418,2.74243 z"
         id="path32465-6"
         style="display:inline;fill:#135180;fill-opacity:0.478175;stroke-width:0.0336692" />
      <path
         style="display:inline;fill:#135180;fill-opacity:0.478175;stroke:none;stroke-width:0.0580405"
         d="m 90.972464,33.836004 c -0.38595,-0.235325 -0.369412,-0.01203 -0.352168,-4.756238 l 0.01604,-4.291098 0.145166,-0.157244 c 0.273009,-0.295842 0.400241,-0.316408 1.957,-0.31631 1.609011,1.03e-4 1.722064,0.02302 1.974076,0.400265 l 0.131692,0.197218 -2.09e-4,4.242873 c -2.08e-4,4.105769 -0.0032,4.248879 -0.113566,4.428686 -0.213928,0.35085 -0.295285,0.365596 -2.016356,0.365355 -1.440368,-1.73e-4 -1.569221,-0.0085 -1.741287,-0.113518 z m 2.093263,-1.243183 c 0.358087,-0.149626 0.561015,-0.560383 0.473546,-0.958594 -0.05454,-0.248792 -0.313912,-0.504426 -0.597876,-0.589503 -0.670507,-0.200889 -1.281953,0.540244 -0.959219,1.162641 0.210002,0.404991 0.656568,0.563851 1.083549,0.385456 z"
         id="path35368-7" />
      <path
         fill="currentColor"
         d="m 69.356662,16.511623 -1.597196,-0.518438 c -0.264628,-0.0859 -0.548782,0.05899 -0.63468,0.323625 l -1.555303,4.791553 c -0.0859,0.264633 0.05899,0.548787 0.32362,0.634684 l 1.597196,0.518438 c 0.264624,0.0859 0.548776,-0.059 0.634674,-0.323628 l 1.555304,-4.791553 c 0.0859,-0.264633 -0.05899,-0.548786 -0.323615,-0.634681 z m -2.405749,4.692049 c -0.264628,-0.0859 -0.409518,-0.37005 -0.32362,-0.634684 0.0859,-0.264633 0.370053,-0.409524 0.634681,-0.323627 0.264638,0.0859 0.409527,0.370055 0.323629,0.634688 -0.0859,0.264634 -0.370052,0.409522 -0.63469,0.323623 z m 8.919659,-5.723474 c -0.274873,0.846826 -0.947537,1.153535 -1.277079,1.671983 l 2.030882,0.65921 c 0.666764,0.216426 1.006037,0.93886 0.812463,1.545843 -0.114344,0.358746 -0.392042,0.694768 -0.706914,0.856235 l -0.0026,0.0016 c 0.04514,0.52966 -0.19869,1.172148 -0.700819,1.526265 0.0055,0.573244 -0.375849,1.151432 -0.811529,1.386345 -0.02825,0.379188 -0.166301,0.664894 -0.41198,0.851226 -0.597513,0.453181 -1.610118,0.133612 -2.464154,-0.143602 l -0.05678,-0.01845 c -0.963938,-0.313221 -1.63899,-0.920361 -2.181409,-1.408185 -0.272573,-0.245139 -0.632169,-0.555797 -0.946321,-0.66419 -0.129771,-0.04486 -0.199884,-0.185307 -0.157495,-0.315897 l 1.385321,-4.267876 c 0.02074,-0.06389 0.06622,-0.116895 0.126271,-0.147058 1.044549,-0.524789 1.653191,-1.241805 2.512215,-1.68072 0.391668,-0.200185 0.644345,-0.612586 0.888673,-1.011411 0.208636,-0.340564 0.649021,-1.064748 1.051975,-0.933952 0.47916,0.155531 1.385617,0.626308 0.909616,2.092763 z"
         id="path32465-6-4"
         style="display:inline;fill:#135180;fill-opacity:0.182073;stroke-width:0.0209902" />
      <path
         style="display:inline;fill:#135180;fill-opacity:0.182073;stroke:none;stroke-width:0.0361838"
         d="m 65.683965,21.569698 c -0.183562,-0.213825 -0.216734,-0.07824 0.706623,-2.888081 l 0.835433,-2.541397 0.116344,-0.0653 c 0.218827,-0.122878 0.298231,-0.110584 1.22132,0.189108 0.954073,0.309752 1.016699,0.3451 1.093524,0.617301 l 0.04013,0.142291 -0.816763,2.515849 c -0.790374,2.43455 -0.819697,2.518832 -0.919744,2.604211 -0.194382,0.166867 -0.245463,0.159952 -1.265956,-0.17145 -0.85406,-0.277335 -0.928862,-0.307074 -1.010679,-0.402464 z m 1.480518,-0.334271 c 0.241133,-0.0198 0.440522,-0.224309 0.465301,-0.477271 0.01555,-0.158023 -0.08905,-0.359528 -0.241058,-0.464631 -0.358923,-0.248176 -0.86414,0.07361 -0.792564,0.504785 0.04657,0.280566 0.280798,0.460717 0.568321,0.437117 z"
         id="path35368-7-0" />
      <path
         fill="currentColor"
         d="m 45.291147,117.83368 -2.50325,0.54935 c -0.41475,0.091 -0.67719,0.50098 -0.58615,0.91577 l 1.64805,7.50969 c 0.091,0.41474 0.50108,0.67714 0.91577,0.58616 l 2.50324,-0.54935 c 0.41474,-0.091 0.67719,-0.50099 0.58616,-0.91577 l -1.64807,-7.50968 c -0.091,-0.41476 -0.50099,-0.6772 -0.91575,-0.58617 z m 0.45136,8.03468 c -0.41475,0.091 -0.82475,-0.17141 -0.91576,-0.58616 -0.091,-0.41476 0.17139,-0.82476 0.58615,-0.91578 0.41476,-0.091 0.82476,0.17141 0.91579,0.58617 0.091,0.41475 -0.17142,0.82475 -0.58618,0.91577 z m 7.33109,-14.41778 c 0.29124,1.32721 -0.35798,2.25 -0.39201,3.18694 l 3.18296,-0.69851 c 1.04499,-0.22933 2.04906,0.46031 2.26237,1.40896 0.12617,0.56064 0.0197,1.21735 -0.27041,1.67288 l -0.003,0.005 c 0.46794,0.66272 0.64254,1.69685 0.25446,2.55052 0.44911,0.75086 0.39326,1.80624 7.3e-4,2.45168 0.25541,0.52108 0.2939,1.00387 0.1141,1.43876 -0.43726,1.05771 -2.01726,1.41801 -3.35577,1.71174 l -0.0891,0.0195 c -1.51102,0.33111 -2.86833,0.0523 -3.95894,-0.17167 -0.54804,-0.11256 -1.26124,-0.24427 -1.75855,-0.14467 -0.20551,0.041 -0.40618,-0.0898 -0.45109,-0.29451 l -1.46794,-6.68894 c -0.022,-0.1001 -0.003,-0.205 0.0528,-0.29105 0.97073,-1.49686 1.21916,-2.91061 2.01181,-4.15125 0.36135,-0.56576 0.37596,-1.30375 0.39007,-2.01745 0.012,-0.60942 0.0333,-1.90279 0.66489,-2.0414 0.75097,-0.1648 2.30782,-0.24408 2.81221,2.05427 z"
         id="path32465-6-4-2"
         style="display:inline;fill:#135180;fill-opacity:0.419353;stroke-width:0.032035" />
      <path
         style="display:inline;fill:#135180;fill-opacity:0.419353;stroke:none;stroke-width:0.0552232"
         d="m 44.356427,127.32771 c -0.40667,-0.13999 -0.34573,0.0642 -1.29733,-4.34836 l -0.86025,-3.99119 0.10282,-0.17578 c 0.19337,-0.33062 0.30742,-0.37568 1.75421,-0.69308 1.49534,-0.32807 1.60508,-0.32983 1.91622,-0.0306 l 0.16257,0.15644 0.86516,3.94314 c 0.83718,3.81572 0.86356,3.94932 0.79769,4.13893 -0.12725,0.3697 -0.19987,0.39999 -1.79938,0.75079 -1.33864,0.29359 -1.46008,0.31212 -1.64142,0.24963 z m 1.69182,-1.58227 c 0.30228,-0.21207 0.40708,-0.63521 0.24457,-0.98746 -0.10136,-0.22012 -0.39466,-0.40471 -0.67586,-0.42591 -0.66409,-0.0499 -1.0812,0.76352 -0.65431,1.27613 0.27777,0.33353 0.72518,0.39011 1.0856,0.13724 z"
         id="path35368-7-0-9" />
      <path
         fill="currentColor"
         d="m 109.39571,57.845867 -2.2042,1.402945 c -0.36521,0.232445 -0.47283,0.716928 -0.24038,1.082135 l 4.20881,6.612574 c 0.23245,0.365209 0.71694,0.472826 1.08214,0.24038 l 2.2042,-1.402944 c 0.3652,-0.232446 0.47282,-0.716929 0.24038,-1.082136 l -4.20881,-6.612576 c -0.23245,-0.365207 -0.71694,-0.472822 -1.08214,-0.240378 z m 3.247,7.534471 c -0.36521,0.232446 -0.84969,0.124829 -1.08214,-0.24038 -0.23245,-0.365207 -0.12483,-0.849691 0.24037,-1.082137 0.36522,-0.232455 0.8497,-0.124829 1.08215,0.240371 0.23245,0.365207 0.12483,0.84969 -0.24038,1.082146 z m 1.96785,-16.372284 c 0.74383,1.168662 0.44553,2.279619 0.74119,3.188592 l 2.80273,-1.783894 c 0.92017,-0.585673 2.1231,-0.277148 2.65967,0.556383 0.31611,0.493261 0.44531,1.158629 0.32716,1.696389 l -0.001,0.0051 c 0.68025,0.470497 1.20966,1.399504 1.13718,2.352785 0.69327,0.561248 1.01039,1.59086 0.85961,2.347029 0.4271,0.409452 0.63311,0.858154 0.61332,1.337533 -0.0481,1.165869 -1.43464,2.064363 -2.61325,2.814529 l -0.0784,0.04987 c -1.33069,0.846378 -2.72789,1.054969 -3.85052,1.222588 -0.56415,0.08423 -1.29311,0.207999 -1.73437,0.477589 -0.18234,0.111328 -0.42034,0.05629 -0.53506,-0.12394 l -3.74883,-5.889891 c -0.0561,-0.08816 -0.0746,-0.195288 -0.0515,-0.297135 0.405,-1.773206 0.14755,-3.213772 0.47178,-4.679287 0.1478,-0.668278 -0.0968,-1.379977 -0.3333,-2.068207 -0.20198,-0.587696 -0.6347,-1.83347 -0.0786,-2.187419 0.66126,-0.42088 2.12406,-1.042218 3.41216,0.981561 z"
         id="path32465-5"
         style="display:inline;fill:#135180;fill-opacity:0.656124;stroke-width:0.0326599" />
      <path
         style="display:inline;fill:#135180;fill-opacity:0.656124;stroke:none;stroke-width:0.0563005"
         d="m 111.8269,67.263139 c -0.4384,0.0085 -0.30853,0.182612 -2.76546,-3.708731 l -2.22279,-3.519309 0.0369,-0.204279 c 0.0693,-0.384294 0.16272,-0.46739 1.43671,-1.278149 1.31675,-0.837973 1.4212,-0.878116 1.82393,-0.700666 l 0.2105,0.0928 2.20973,3.472166 c 2.13834,3.35995 2.20997,3.478912 2.21376,3.683248 0.008,0.398537 -0.0512,0.45299 -1.45975,1.349212 -1.17877,0.750072 -1.28861,0.810287 -1.48406,0.814058 z m 1.06545,-2.107606 c 0.21511,-0.308952 0.16722,-0.750778 -0.11176,-1.031093 -0.17428,-0.175149 -0.51961,-0.249286 -0.79631,-0.170993 -0.6533,0.184832 -0.76766,1.109802 -0.17937,1.451025 0.38279,0.222032 0.83098,0.119422 1.08745,-0.248935 z"
         id="path35368-3" />
      <path
         fill="currentColor"
         d="m 13.880006,53.681614 h -2.544927 c -0.421661,0 -0.763454,0.341812 -0.763454,0.763473 v 7.634725 c 0,0.421661 0.341793,0.763473 0.763454,0.763473 h 2.544927 c 0.421639,0 0.763454,-0.341812 0.763454,-0.763473 v -7.634725 c 0,-0.421661 -0.341815,-0.763473 -0.763454,-0.763473 z m -1.272474,7.889215 c -0.42166,0 -0.763499,-0.341811 -0.763499,-0.763472 0,-0.421659 0.341839,-0.763471 0.763499,-0.763471 0.421661,0 0.763476,0.341812 0.763476,0.763471 0,0.421661 -0.341815,0.763472 -0.763476,0.763472 z m 10.17964,-12.42386 c 0,1.349307 -0.826167,2.106167 -1.058603,3.007698 h 3.235961 c 1.062403,0 1.889482,0.882637 1.894477,1.848177 0.0021,0.570632 -0.240103,1.184939 -0.618376,1.565021 l -0.0044,0.0035 c 0.312912,0.742382 0.262033,1.782613 -0.296106,2.528012 0.276149,0.82376 -0.0021,1.835647 -0.521115,2.378129 0.136805,0.559814 0.07144,1.036253 -0.195651,1.419802 -0.649278,0.932833 -2.258485,0.945974 -3.619273,0.945974 l -0.09055,-3.2e-5 c -1.536093,-4.8e-4 -2.793258,-0.559815 -3.803373,-1.009215 -0.507607,-0.225832 -1.171326,-0.505388 -1.674917,-0.514645 -0.208029,-0.0037 -0.374821,-0.17361 -0.374821,-0.38167 v -6.800317 c 0,-0.1018 0.04083,-0.199495 0.113132,-0.271066 1.260162,-1.245224 1.802037,-2.563581 2.83493,-3.598211 0.470931,-0.47183 0.642198,-1.184531 0.807796,-1.873757 0.141364,-0.58854 0.437339,-1.838504 1.079406,-1.838504 0.763476,0 2.290427,0.254492 2.290427,2.591101 z"
         id="path32465-56"
         style="display:inline;fill:#135180;fill-opacity:0.267896;stroke-width:0.0318113" />
      <path
         style="display:inline;fill:#135180;fill-opacity:0.267896;stroke:none;stroke-width:0.0548378"
         d="m 10.952462,62.691258 c -0.364638,-0.222349 -0.349003,-0.01147 -0.332716,-4.493785 l 0.0152,-4.054311 0.137238,-0.148551 c 0.257953,-0.279518 0.378167,-0.298948 1.849008,-0.298854 1.520241,9.2e-5 1.627058,0.02177 1.865162,0.378179 l 0.124424,0.186314 -1.96e-4,4.008745 c -1.95e-4,3.879212 -0.0044,4.014422 -0.107266,4.184309 -0.20195,0.331489 -0.278973,0.345419 -1.905118,0.345192 -1.360855,-1.63e-4 -1.482611,-0.008 -1.645169,-0.107253 z m 1.977777,-1.174584 c 0.338318,-0.141365 0.530039,-0.529458 0.447414,-0.905696 -0.05168,-0.235068 -0.296605,-0.476593 -0.564893,-0.556973 -0.633512,-0.18981 -1.211195,0.510431 -0.906273,1.098483 0.198256,0.382646 0.620352,0.532738 1.023752,0.364186 z"
         id="path35368-2" />
    </g>
  </g>
  <g
     inkscape:groupmode="layer"
     id="layer5"
     inkscape:label="Notifications"
     style="display:inline">
    <g
       inkscape:label="Head"
       inkscape:groupmode="layer"
       id="g41586"
       style="display:inline">
      <g
         id="g41584"
         transform="matrix(0.75602512,0,0,0.75602512,21.83894,55.120682)">
        <g
           id="g41546">
	<path
   style="fill:#206b94;fill-opacity:1"
   d="M 4.511,38.5 C 4.774,32.39 9.826,27.5 16,27.5 h 8 c 6.174,0 11.227,4.89 11.489,11 z"
   id="path41540" />

	<g
   id="g41544">
		<path
   style="fill:#05386b;fill-opacity:1"
   d="m 24,28 c 5.729,0 10.448,4.401 10.955,10 H 5.045 C 5.552,32.401 10.271,28 16,28 h 8 m 0,-1 H 16 C 9.373,27 4,32.373 4,39 H 36 C 36,32.373 30.627,27 24,27 Z"
   id="path41542" />

	</g>

</g>
        <g
           id="g41554">
	<path
   style="fill:#2bc26e;fill-opacity:1"
   d="m 20,30.5 c -3.219,0 -4.309,-2.102 -4.5,-2.537 V 22.5 h 9 v 5.464 C 24.312,28.394 23.223,30.5 20,30.5 Z"
   id="path41548" />

	<g
   id="g41552">
		<path
   style="fill:#05386b;fill-opacity:1"
   d="m 24,23 v 4.854 C 23.759,28.343 22.738,30 20,30 17.27,30 16.244,28.343 16,27.853 V 23 h 8 m 1,-1 H 15 v 6.062 c 0,0 1.066,2.938 5,2.938 3.934,0 5,-2.938 5,-2.938 z"
   id="path41550" />

	</g>

</g>
        <g
           id="g41564">
	<g
   id="g41558">
		<path
   style="fill:#2ece76;fill-opacity:1"
   d="m 27.143,19.214 c -1.3,0 -2.356,-1.057 -2.356,-2.356 0,-1.299 1.057,-2.357 2.356,-2.357 1.963,0 2.357,0.537 2.357,1.404 0,1.413 -1.165,3.309 -2.357,3.309 z m -14.286,0 c -1.192,0 -2.357,-1.896 -2.357,-3.31 0,-0.867 0.395,-1.404 2.357,-1.404 1.3,0 2.356,1.058 2.356,2.357 0,1.299 -1.056,2.357 -2.356,2.357 z"
   id="path41556" />

	</g>

	<g
   id="g41562">
		<path
   style="fill:#05386b;fill-opacity:1"
   d="M 27.143,15 C 29,15 29,15.481 29,15.905 c 0,1.234 -1.041,2.81 -1.857,2.81 -1.024,0 -1.857,-0.833 -1.857,-1.857 0,-1.024 0.833,-1.858 1.857,-1.858 m -14.286,0 c 1.024,0 1.857,0.833 1.857,1.857 0,1.024 -0.833,1.857 -1.857,1.857 C 12.041,18.714 11,17.139 11,15.904 11,15.481 11,15 12.857,15 m 14.286,-1 c -1.578,0 -2.857,1.279 -2.857,2.857 0,1.578 1.279,2.857 2.857,2.857 1.578,0 2.857,-2.232 2.857,-3.81 C 30,14.327 28.721,14 27.143,14 Z M 12.857,14 C 11.279,14 10,14.327 10,15.905 c 0,1.578 1.279,3.81 2.857,3.81 1.578,0 2.857,-1.279 2.857,-2.857 C 15.714,15.28 14.435,14 12.857,14 Z"
   id="path41560" />

	</g>

</g>
        <g
           id="g41574">
	<g
   id="g41568">
		<path
   style="fill:#2ece76;fill-opacity:1"
   d="m 20,26.5 c -0.604,0 -1.172,-0.218 -1.642,-0.631 L 18.267,25.79 18.151,25.761 C 14.824,24.916 12.5,21.931 12.5,18.5 V 9.201 c 0,-1.826 1.486,-3.313 3.312,-3.313 h 8.375 c 1.826,0 3.313,1.486 3.313,3.313 V 18.5 c 0,3.431 -2.324,6.416 -5.651,7.261 l -0.116,0.029 -0.091,0.079 C 21.172,26.282 20.604,26.5 20,26.5 Z"
   id="path41566" />

	</g>

	<g
   id="g41572">
		<path
   style="fill:#05386b;fill-opacity:1"
   d="M 24.187,6.389 C 25.738,6.389 27,7.651 27,9.202 V 18.5 c 0,3.201 -2.169,5.987 -5.275,6.776 l -0.233,0.059 -0.181,0.159 C 21.048,25.725 20.608,26 20,26 19.392,26 18.952,25.725 18.689,25.494 L 18.508,25.335 18.275,25.276 C 15.169,24.487 13,21.701 13,18.5 V 9.202 c 0,-1.551 1.262,-2.813 2.813,-2.813 h 8.374 m 0,-1 H 15.812 C 13.707,5.389 12,7.096 12,9.202 V 18.5 c 0,3.737 2.566,6.866 6.029,7.745 C 18.557,26.709 19.242,27 20,27 20.758,27 21.443,26.709 21.971,26.245 25.434,25.366 28,22.237 28,18.5 V 9.202 C 28,7.096 26.293,5.389 24.187,5.389 Z"
   id="path41570" />

	</g>

</g>
        <g
           id="g41582">
	<path
   style="fill:#206b94;fill-opacity:1"
   d="M 27.5,17.5 V 14 c 0,-3.635 -3.033,-5.582 -3.163,-5.663 l -0.398,-0.25 -0.274,0.384 c -0.085,0.118 -2.119,2.886 -6.514,2.886 -1.15,0 -4.65,0 -4.65,3.644 v 2.5 h -0.179 c -0.436,-0.981 -1.821,-4.332 -1.821,-7.188 0,-5.271 3.617,-8.812 9,-8.812 3.839,0 4.992,2.585 5.039,2.695 L 24.671,4.499 25,4.5 c 1.671,0 4.5,1.161 4.5,5.515 0,2.621 -1.407,6.394 -1.838,7.485 z"
   id="path41576" />

	<g
   id="g41580">
		<path
   style="fill:#05386b;fill-opacity:1"
   d="m 19.5,2 c 3.483,0 4.538,2.297 4.577,2.385 L 24.334,5 H 25 c 1.845,0 4,1.313 4,5.015 0,1.536 -0.507,3.498 -1,5.043 V 14 C 28,10.091 24.742,8.001 24.603,7.914 L 23.802,7.41 23.255,8.182 C 23.236,8.209 21.314,10.856 17.15,10.856 13.733,10.857 12,12.251 12,15 v 0.314 C 11.509,13.892 11,12.009 11,10.311 11,5.34 14.416,2 19.5,2 m 0,-1 C 13.681,1 10,4.981 10,10.311 10,13.842 12,18 12,18 h 1 c 0,0 0,-2.029 0,-3 0,-2.668 2.024,-3.143 4.15,-3.143 4.73,0 6.922,-3.096 6.922,-3.096 0,0 2.928,1.838 2.928,5.239 0,1.069 0,4 0,4 h 1 c 0,0 2,-4.768 2,-7.985 C 30,5.498 27.123,4 25,4 25,4 23.747,1 19.5,1 Z"
   id="path41578" />

	</g>

</g>
      </g>
    </g>
    <g
       inkscape:groupmode="layer"
       id="layer4"
       inkscape:label="Notification outline">
      <rect
         style="fill:none;fill-opacity:1;stroke:#05386b;stroke-width:1.32292;stroke-linecap:round;stroke-linejoin:round;stroke-miterlimit:4;stroke-dasharray:none;stroke-opacity:1"
         id="rect40344"
         width="97.827263"
         height="42.333477"
         x="20.126032"
         y="49.533993"
         rx="5"
         ry="5" />
      <rect
         style="fill:#05386b;fill-opacity:1;stroke:#05386b;stroke-width:0.2942;stroke-linecap:round;stroke-linejoin:round;stroke-miterlimit:4;stroke-dasharray:none;stroke-opacity:1"
         id="rect40344-3"
         width="61.519588"
         height="3.3292558"
         x="51.544525"
         y="64.788177"
         rx="0.79374999"
         ry="0.79374999" />
      <rect
         style="fill:#05386b;fill-opacity:1;stroke:#05386b;stroke-width:0.221202;stroke-linecap:round;stroke-linejoin:round;stroke-miterlimit:4;stroke-dasharray:none;stroke-opacity:1"
         id="rect40344-3-0"
         width="34.011353"
         height="3.4043534"
         x="51.487946"
         y="71.541107"
         rx="0.79374999"
         ry="0.79374999" />
      <rect
         style="fill:#05386b;fill-opacity:1;stroke:#05386b;stroke-width:0.184916;stroke-linecap:round;stroke-linejoin:round;stroke-miterlimit:4;stroke-dasharray:none;stroke-opacity:1"
         id="rect40344-3-0-3"
         width="23.740665"
         height="3.4082899"
         x="88.998993"
         y="71.598389"
         rx="0.79374999"
         ry="0.79374999" />
      <rect
         style="fill:#05386b;fill-opacity:1;stroke:#05386b;stroke-width:0.161909;stroke-linecap:round;stroke-linejoin:round;stroke-miterlimit:4;stroke-dasharray:none;stroke-opacity:1"
         id="rect40344-3-0-3-9"
         width="18.075098"
         height="3.4319589"
         x="51.458195"
         y="78.172943"
         rx="0.79374999"
         ry="0.79374999" />
      <rect
         style="fill:#05386b;fill-opacity:1;stroke:#05386b;stroke-width:0.161909;stroke-linecap:round;stroke-linejoin:round;stroke-miterlimit:4;stroke-dasharray:none;stroke-opacity:1"
         id="rect40344-3-0-3-9-1"
         width="18.075098"
         height="3.4319589"
         x="72.87841"
         y="78.256126"
         rx="0.79374999"
         ry="0.79374999" />
      <rect
         style="fill:#05386b;fill-opacity:1;stroke:#05386b;stroke-width:0.161909;stroke-linecap:round;stroke-linejoin:round;stroke-miterlimit:4;stroke-dasharray:none;stroke-opacity:1"
         id="rect40344-3-0-3-9-9"
         width="18.075098"
         height="3.4319589"
         x="94.643295"
         y="78.296883"
         rx="0.79374999"
         ry="0.79374999" />
      <text
         xml:space="preserve"
         style="font-style:normal;font-weight:normal;font-size:4.37643px;line-height:1.25;font-family:sans-serif;fill:#05386b;fill-opacity:1;stroke:none;stroke-width:0.109411"
         x="51.447758"
         y="60.866035"
         id="text44314"><tspan
           sodipodi:role="line"
           id="tspan44312"
           style="font-style:normal;font-variant:normal;font-weight:bold;font-stretch:normal;font-size:4.37643px;font-family:sans-serif;-inkscape-font-specification:'sans-serif, Bold';font-variant-ligatures:normal;font-variant-caps:normal;font-variant-numeric:normal;font-variant-east-asian:normal;fill:#05386b;fill-opacity:1;stroke-width:0.109411"
           x="51.447758"
           y="60.866035">Guest appeared on show</tspan></text>
      <path
         fill="currentColor"
         d="m 70.385559,55.887556 c 2.024182,-0.577566 3.197611,-2.687991 2.619553,-4.713893 l -7.332217,2.092127 c 0.578058,2.025903 2.688481,3.199334 4.712664,2.621766 z M 80.2814,43.785559 c -1.446701,-0.873824 -4.029139,-2.07247 -5.70199,-7.935264 -1.270582,-4.452972 -5.40994,-7.126763 -9.869456,-6.800063 l -0.340785,-1.194337 c -0.288947,-1.012664 -1.343954,-1.599747 -2.356044,-1.310963 -1.012092,0.288783 -1.598438,1.344199 -1.309491,2.356863 l 0.340785,1.194337 c -3.960442,2.075795 -6.06556,6.531346 -4.794978,10.984317 1.672852,5.862795 0.111787,8.24372 -0.655963,9.7494 -0.238385,0.467763 -0.264751,0.953119 -0.138426,1.384991 0.274507,0.938075 1.267159,1.62166 2.362923,1.309001 l 21.995506,-6.276055 c 1.095763,-0.312657 1.578815,-1.417309 1.316367,-2.358826 -0.120592,-0.433508 -0.39928,-0.832441 -0.848448,-1.103401 z"
         id="path93576"
         style="fill:#206b94;fill-opacity:1;stroke:#05386b;stroke-width:1.0122;stroke-linecap:round;stroke-linejoin:round;stroke-miterlimit:4;stroke-dasharray:none;stroke-opacity:1" />
      <path
         style="fill:none;stroke:#05386b;stroke-width:2.64583;stroke-linecap:round;stroke-linejoin:round;stroke-miterlimit:4;stroke-dasharray:none;stroke-opacity:1"
         d="m 42.442014,45.939505 c -6.018233,-14.9498 6.202334,-22.856441 6.202334,-22.856441"
         id="path99440"
         sodipodi:nodetypes="cc" />
      <path
         style="fill:none;stroke:#05386b;stroke-width:2.64583;stroke-linecap:round;stroke-linejoin:round;stroke-miterlimit:4;stroke-dasharray:none;stroke-opacity:1"
         d="M 34.441702,39.850229 C 31.805375,29.895272 38.179327,24.219426 38.179327,24.219426"
         id="path99440-3"
         sodipodi:nodetypes="cc" />
      <path
         style="fill:none;stroke:#05386b;stroke-width:2.64583;stroke-linecap:round;stroke-linejoin:round;stroke-miterlimit:4;stroke-dasharray:none;stroke-opacity:1"
         d="M 27.479789,34.734402 C 25.904671,27.877599 29.985296,23.896036 29.985296,23.896036"
         id="path99440-3-3"
         sodipodi:nodetypes="cc" />
      <path
         style="fill:none;stroke:#05386b;stroke-width:2.64583;stroke-linecap:round;stroke-linejoin:round;stroke-miterlimit:4;stroke-dasharray:none;stroke-opacity:1"
         d="m 77.322331,20.120585 c 14.673826,6.662927 11.289154,20.819242 11.289154,20.819242"
         id="path99440-8"
         sodipodi:nodetypes="cc" />
      <path
         style="fill:none;stroke:#05386b;stroke-width:2.64583;stroke-linecap:round;stroke-linejoin:round;stroke-miterlimit:4;stroke-dasharray:none;stroke-opacity:1"
         d="m 88.051424,18.877828 c 8.779057,5.383258 8.084937,13.889766 8.084937,13.889766"
         id="path99440-3-0"
         sodipodi:nodetypes="cc" />
      <path
         style="fill:none;stroke:#05386b;stroke-width:2.64583;stroke-linecap:round;stroke-linejoin:round;stroke-miterlimit:4;stroke-dasharray:none;stroke-opacity:1"
         d="m 95.802844,17.136084 c 5.872676,3.874065 5.668416,9.571664 5.668416,9.571664"
         id="path99440-3-3-5"
         sodipodi:nodetypes="cc" />
      <ellipse
         style="fill:#e26391;fill-opacity:1;fill-rule:evenodd;stroke-width:0.20244"
         id="path105036"
         cx="70.538635"
         cy="29.396305"
         rx="4.1635609"
         ry="4.0244522" />
    </g>
  </g>
  <g
     inkscape:groupmode="layer"
     id="layer7"
     inkscape:label="Tracking"
     style="display:none">
    <g
       inkscape:label="Head"
       inkscape:groupmode="layer"
       id="g114511"
       style="display:inline">
      <g
         id="g114509"
         transform="matrix(1.0521678,0,0,1.0521678,45.089126,40.654308)">
        <g
           id="g114471">
	<path
   style="fill:#206b94;fill-opacity:1"
   d="M 4.511,38.5 C 4.774,32.39 9.826,27.5 16,27.5 h 8 c 6.174,0 11.227,4.89 11.489,11 z"
   id="path114465" />

	<g
   id="g114469">
		<path
   style="fill:#05386b;fill-opacity:1"
   d="m 24,28 c 5.729,0 10.448,4.401 10.955,10 H 5.045 C 5.552,32.401 10.271,28 16,28 h 8 m 0,-1 H 16 C 9.373,27 4,32.373 4,39 H 36 C 36,32.373 30.627,27 24,27 Z"
   id="path114467" />

	</g>

</g>
        <g
           id="g114479">
	<path
   style="fill:#2bc26e;fill-opacity:1"
   d="m 20,30.5 c -3.219,0 -4.309,-2.102 -4.5,-2.537 V 22.5 h 9 v 5.464 C 24.312,28.394 23.223,30.5 20,30.5 Z"
   id="path114473" />

	<g
   id="g114477">
		<path
   style="fill:#05386b;fill-opacity:1"
   d="m 24,23 v 4.854 C 23.759,28.343 22.738,30 20,30 17.27,30 16.244,28.343 16,27.853 V 23 h 8 m 1,-1 H 15 v 6.062 c 0,0 1.066,2.938 5,2.938 3.934,0 5,-2.938 5,-2.938 z"
   id="path114475" />

	</g>

</g>
        <g
           id="g114489">
	<g
   id="g114483">
		<path
   style="fill:#2ece76;fill-opacity:1"
   d="m 27.143,19.214 c -1.3,0 -2.356,-1.057 -2.356,-2.356 0,-1.299 1.057,-2.357 2.356,-2.357 1.963,0 2.357,0.537 2.357,1.404 0,1.413 -1.165,3.309 -2.357,3.309 z m -14.286,0 c -1.192,0 -2.357,-1.896 -2.357,-3.31 0,-0.867 0.395,-1.404 2.357,-1.404 1.3,0 2.356,1.058 2.356,2.357 0,1.299 -1.056,2.357 -2.356,2.357 z"
   id="path114481" />

	</g>

	<g
   id="g114487">
		<path
   style="fill:#05386b;fill-opacity:1"
   d="M 27.143,15 C 29,15 29,15.481 29,15.905 c 0,1.234 -1.041,2.81 -1.857,2.81 -1.024,0 -1.857,-0.833 -1.857,-1.857 0,-1.024 0.833,-1.858 1.857,-1.858 m -14.286,0 c 1.024,0 1.857,0.833 1.857,1.857 0,1.024 -0.833,1.857 -1.857,1.857 C 12.041,18.714 11,17.139 11,15.904 11,15.481 11,15 12.857,15 m 14.286,-1 c -1.578,0 -2.857,1.279 -2.857,2.857 0,1.578 1.279,2.857 2.857,2.857 1.578,0 2.857,-2.232 2.857,-3.81 C 30,14.327 28.721,14 27.143,14 Z M 12.857,14 C 11.279,14 10,14.327 10,15.905 c 0,1.578 1.279,3.81 2.857,3.81 1.578,0 2.857,-1.279 2.857,-2.857 C 15.714,15.28 14.435,14 12.857,14 Z"
   id="path114485" />

	</g>

</g>
        <g
           id="g114499">
	<g
   id="g114493">
		<path
   style="fill:#2ece76;fill-opacity:1"
   d="m 20,26.5 c -0.604,0 -1.172,-0.218 -1.642,-0.631 L 18.267,25.79 18.151,25.761 C 14.824,24.916 12.5,21.931 12.5,18.5 V 9.201 c 0,-1.826 1.486,-3.313 3.312,-3.313 h 8.375 c 1.826,0 3.313,1.486 3.313,3.313 V 18.5 c 0,3.431 -2.324,6.416 -5.651,7.261 l -0.116,0.029 -0.091,0.079 C 21.172,26.282 20.604,26.5 20,26.5 Z"
   id="path114491" />

	</g>

	<g
   id="g114497">
		<path
   style="fill:#05386b;fill-opacity:1"
   d="M 24.187,6.389 C 25.738,6.389 27,7.651 27,9.202 V 18.5 c 0,3.201 -2.169,5.987 -5.275,6.776 l -0.233,0.059 -0.181,0.159 C 21.048,25.725 20.608,26 20,26 19.392,26 18.952,25.725 18.689,25.494 L 18.508,25.335 18.275,25.276 C 15.169,24.487 13,21.701 13,18.5 V 9.202 c 0,-1.551 1.262,-2.813 2.813,-2.813 h 8.374 m 0,-1 H 15.812 C 13.707,5.389 12,7.096 12,9.202 V 18.5 c 0,3.737 2.566,6.866 6.029,7.745 C 18.557,26.709 19.242,27 20,27 20.758,27 21.443,26.709 21.971,26.245 25.434,25.366 28,22.237 28,18.5 V 9.202 C 28,7.096 26.293,5.389 24.187,5.389 Z"
   id="path114495" />

	</g>

</g>
        <g
           id="g114507">
	<path
   style="fill:#206b94;fill-opacity:1"
   d="M 27.5,17.5 V 14 c 0,-3.635 -3.033,-5.582 -3.163,-5.663 l -0.398,-0.25 -0.274,0.384 c -0.085,0.118 -2.119,2.886 -6.514,2.886 -1.15,0 -4.65,0 -4.65,3.644 v 2.5 h -0.179 c -0.436,-0.981 -1.821,-4.332 -1.821,-7.188 0,-5.271 3.617,-8.812 9,-8.812 3.839,0 4.992,2.585 5.039,2.695 L 24.671,4.499 25,4.5 c 1.671,0 4.5,1.161 4.5,5.515 0,2.621 -1.407,6.394 -1.838,7.485 z"
   id="path114501" />

	<g
   id="g114505">
		<path
   style="fill:#05386b;fill-opacity:1"
   d="m 19.5,2 c 3.483,0 4.538,2.297 4.577,2.385 L 24.334,5 H 25 c 1.845,0 4,1.313 4,5.015 0,1.536 -0.507,3.498 -1,5.043 V 14 C 28,10.091 24.742,8.001 24.603,7.914 L 23.802,7.41 23.255,8.182 C 23.236,8.209 21.314,10.856 17.15,10.856 13.733,10.857 12,12.251 12,15 v 0.314 C 11.509,13.892 11,12.009 11,10.311 11,5.34 14.416,2 19.5,2 m 0,-1 C 13.681,1 10,4.981 10,10.311 10,13.842 12,18 12,18 h 1 c 0,0 0,-2.029 0,-3 0,-2.668 2.024,-3.143 4.15,-3.143 4.73,0 6.922,-3.096 6.922,-3.096 0,0 2.928,1.838 2.928,5.239 0,1.069 0,4 0,4 h 1 c 0,0 2,-4.768 2,-7.985 C 30,5.498 27.123,4 25,4 25,4 23.747,1 19.5,1 Z"
   id="path114503" />

	</g>

</g>
      </g>
      <g
         id="g119301"
         transform="matrix(0.86896916,0,0,0.86896916,10.997332,19.434271)">
        <path
           fill="currentColor"
           d="m 73.073775,107.34786 h -0.926802 c -0.512057,0 -0.9268,0.41475 -0.9268,0.9268 v 2.7804 c 0,4.3328 -3.735587,7.80946 -8.155268,7.3785 -3.852016,-0.37593 -6.673545,-3.83869 -6.673545,-7.70867 v -2.45023 c 0,-0.51205 -0.414744,-0.9268 -0.926802,-0.9268 h -0.9268 c -0.512057,0 -0.926801,0.41475 -0.926801,0.9268 v 2.32627 c 0,5.19241 3.705466,9.8212 8.804607,10.5244 v 1.97815 h -3.243802 c -0.512057,0 -0.926801,0.41474 -0.926801,0.9268 v 0.92679 c 0,0.51206 0.414744,0.92681 0.926801,0.92681 h 9.268008 c 0.512057,0 0.926801,-0.41475 0.926801,-0.92681 v -0.92679 c 0,-0.51206 -0.414744,-0.9268 -0.926801,-0.9268 h -3.243803 v -1.95613 c 4.964756,-0.6812 8.804608,-4.94274 8.804608,-10.09229 v -2.7804 c 0,-0.51205 -0.414743,-0.9268 -0.9268,-0.9268 z m -9.268009,9.26802 c 3.071186,0 5.560805,-2.48962 5.560805,-5.56082 h -4.942745 c -0.341178,0 -0.61806,-0.20736 -0.61806,-0.46339 v -0.9268 c 0,-0.25603 0.276882,-0.4634 0.61806,-0.4634 h 4.942745 v -1.85361 h -4.942745 c -0.341178,0 -0.61806,-0.20737 -0.61806,-0.4634 v -0.9268 c 0,-0.25603 0.276882,-0.4634 0.61806,-0.4634 h 4.942745 v -1.8536 h -4.942745 c -0.341178,0 -0.61806,-0.20737 -0.61806,-0.4634 v -0.9268 c 0,-0.25603 0.276882,-0.4634 0.61806,-0.4634 h 4.942745 c 0,-3.071189 -2.489619,-5.560807 -5.560805,-5.560807 -3.071187,0 -5.560805,2.489618 -5.560805,5.560807 v 9.268 c 0,3.0712 2.489618,5.56082 5.560805,5.56082 z"
           id="path114577"
           style="fill:#05386b;fill-opacity:0.956863;stroke-width:0.0579249" />
        <path
           style="fill:#206b94;fill-opacity:1;stroke:none;stroke-width:7.07107;stroke-linecap:round;stroke-linejoin:round;stroke-miterlimit:4;stroke-dasharray:none;stroke-opacity:1"
           d="m 234.75399,439.29993 c -7.0525,-2.52449 -12.27553,-8.4053 -13.80687,-15.54567 -0.50139,-2.33792 -0.70114,-10.83858 -0.55612,-23.66637 0.21021,-18.59309 0.3323,-20.24705 1.71524,-23.2359 2.23662,-4.83384 5.79146,-8.44112 10.52546,-10.68071 12.41716,-5.87438 26.39322,1.74854 29.01178,15.82383 l 0.48972,2.63231 -10.50489,0.19611 -10.5049,0.19611 v 3.18198 3.18198 l 10.42983,0.19568 10.42982,0.19568 v 3.16308 3.16308 h -9.41079 c -11.03565,0 -12.02237,0.39076 -11.67718,4.62439 l 0.22832,2.80023 10.42983,0.19568 10.42982,0.19568 v 3.16308 3.16307 h -9.75807 c -6.6468,0 -10.02862,0.27055 -10.6066,0.84853 -1.27545,1.27545 -1.07997,5.98242 0.26996,6.50044 0.61517,0.23607 5.40256,0.42921 10.63864,0.42921 h 9.52015 l -0.46647,2.65165 c -0.69338,3.94143 -2.64473,8.05658 -5.20076,10.96773 -4.96826,5.65854 -14.5921,8.17693 -21.62592,5.65912 z"
           id="path116723"
           transform="scale(0.26458333)" />
      </g>
      <g
         id="g119301-6"
         transform="matrix(0.86896916,0,0,0.86896916,57.799036,-70.670312)"
         style="display:inline">
        <path
           fill="currentColor"
           d="m 73.073775,107.34786 h -0.926802 c -0.512057,0 -0.9268,0.41475 -0.9268,0.9268 v 2.7804 c 0,4.3328 -3.735587,7.80946 -8.155268,7.3785 -3.852016,-0.37593 -6.673545,-3.83869 -6.673545,-7.70867 v -2.45023 c 0,-0.51205 -0.414744,-0.9268 -0.926802,-0.9268 h -0.9268 c -0.512057,0 -0.926801,0.41475 -0.926801,0.9268 v 2.32627 c 0,5.19241 3.705466,9.8212 8.804607,10.5244 v 1.97815 h -3.243802 c -0.512057,0 -0.926801,0.41474 -0.926801,0.9268 v 0.92679 c 0,0.51206 0.414744,0.92681 0.926801,0.92681 h 9.268008 c 0.512057,0 0.926801,-0.41475 0.926801,-0.92681 v -0.92679 c 0,-0.51206 -0.414744,-0.9268 -0.926801,-0.9268 h -3.243803 v -1.95613 c 4.964756,-0.6812 8.804608,-4.94274 8.804608,-10.09229 v -2.7804 c 0,-0.51205 -0.414743,-0.9268 -0.9268,-0.9268 z m -9.268009,9.26802 c 3.071186,0 5.560805,-2.48962 5.560805,-5.56082 h -4.942745 c -0.341178,0 -0.61806,-0.20736 -0.61806,-0.46339 v -0.9268 c 0,-0.25603 0.276882,-0.4634 0.61806,-0.4634 h 4.942745 v -1.85361 h -4.942745 c -0.341178,0 -0.61806,-0.20737 -0.61806,-0.4634 v -0.9268 c 0,-0.25603 0.276882,-0.4634 0.61806,-0.4634 h 4.942745 v -1.8536 h -4.942745 c -0.341178,0 -0.61806,-0.20737 -0.61806,-0.4634 v -0.9268 c 0,-0.25603 0.276882,-0.4634 0.61806,-0.4634 h 4.942745 c 0,-3.071189 -2.489619,-5.560807 -5.560805,-5.560807 -3.071187,0 -5.560805,2.489618 -5.560805,5.560807 v 9.268 c 0,3.0712 2.489618,5.56082 5.560805,5.56082 z"
           id="path114577-1"
           style="fill:#05386b;fill-opacity:0.956863;stroke-width:0.0579249" />
        <path
           style="fill:#206b94;fill-opacity:1;stroke:none;stroke-width:7.07107;stroke-linecap:round;stroke-linejoin:round;stroke-miterlimit:4;stroke-dasharray:none;stroke-opacity:1"
           d="m 234.75399,439.29993 c -7.0525,-2.52449 -12.27553,-8.4053 -13.80687,-15.54567 -0.50139,-2.33792 -0.70114,-10.83858 -0.55612,-23.66637 0.21021,-18.59309 0.3323,-20.24705 1.71524,-23.2359 2.23662,-4.83384 5.79146,-8.44112 10.52546,-10.68071 12.41716,-5.87438 26.39322,1.74854 29.01178,15.82383 l 0.48972,2.63231 -10.50489,0.19611 -10.5049,0.19611 v 3.18198 3.18198 l 10.42983,0.19568 10.42982,0.19568 v 3.16308 3.16308 h -9.41079 c -11.03565,0 -12.02237,0.39076 -11.67718,4.62439 l 0.22832,2.80023 10.42983,0.19568 10.42982,0.19568 v 3.16308 3.16307 h -9.75807 c -6.6468,0 -10.02862,0.27055 -10.6066,0.84853 -1.27545,1.27545 -1.07997,5.98242 0.26996,6.50044 0.61517,0.23607 5.40256,0.42921 10.63864,0.42921 h 9.52015 l -0.46647,2.65165 c -0.69338,3.94143 -2.64473,8.05658 -5.20076,10.96773 -4.96826,5.65854 -14.5921,8.17693 -21.62592,5.65912 z"
           id="path116723-3"
           transform="scale(0.26458333)" />
      </g>
      <g
         id="g119301-2"
         transform="matrix(0.86896916,0,0,0.86896916,-37.608125,-69.626835)"
         style="display:inline">
        <path
           fill="currentColor"
           d="m 73.073775,107.34786 h -0.926802 c -0.512057,0 -0.9268,0.41475 -0.9268,0.9268 v 2.7804 c 0,4.3328 -3.735587,7.80946 -8.155268,7.3785 -3.852016,-0.37593 -6.673545,-3.83869 -6.673545,-7.70867 v -2.45023 c 0,-0.51205 -0.414744,-0.9268 -0.926802,-0.9268 h -0.9268 c -0.512057,0 -0.926801,0.41475 -0.926801,0.9268 v 2.32627 c 0,5.19241 3.705466,9.8212 8.804607,10.5244 v 1.97815 h -3.243802 c -0.512057,0 -0.926801,0.41474 -0.926801,0.9268 v 0.92679 c 0,0.51206 0.414744,0.92681 0.926801,0.92681 h 9.268008 c 0.512057,0 0.926801,-0.41475 0.926801,-0.92681 v -0.92679 c 0,-0.51206 -0.414744,-0.9268 -0.926801,-0.9268 h -3.243803 v -1.95613 c 4.964756,-0.6812 8.804608,-4.94274 8.804608,-10.09229 v -2.7804 c 0,-0.51205 -0.414743,-0.9268 -0.9268,-0.9268 z m -9.268009,9.26802 c 3.071186,0 5.560805,-2.48962 5.560805,-5.56082 h -4.942745 c -0.341178,0 -0.61806,-0.20736 -0.61806,-0.46339 v -0.9268 c 0,-0.25603 0.276882,-0.4634 0.61806,-0.4634 h 4.942745 v -1.85361 h -4.942745 c -0.341178,0 -0.61806,-0.20737 -0.61806,-0.4634 v -0.9268 c 0,-0.25603 0.276882,-0.4634 0.61806,-0.4634 h 4.942745 v -1.8536 h -4.942745 c -0.341178,0 -0.61806,-0.20737 -0.61806,-0.4634 v -0.9268 c 0,-0.25603 0.276882,-0.4634 0.61806,-0.4634 h 4.942745 c 0,-3.071189 -2.489619,-5.560807 -5.560805,-5.560807 -3.071187,0 -5.560805,2.489618 -5.560805,5.560807 v 9.268 c 0,3.0712 2.489618,5.56082 5.560805,5.56082 z"
           id="path114577-15"
           style="fill:#05386b;fill-opacity:0.956863;stroke-width:0.0579249" />
        <path
           style="fill:#206b94;fill-opacity:1;stroke:none;stroke-width:7.07107;stroke-linecap:round;stroke-linejoin:round;stroke-miterlimit:4;stroke-dasharray:none;stroke-opacity:1"
           d="m 234.75399,439.29993 c -7.0525,-2.52449 -12.27553,-8.4053 -13.80687,-15.54567 -0.50139,-2.33792 -0.70114,-10.83858 -0.55612,-23.66637 0.21021,-18.59309 0.3323,-20.24705 1.71524,-23.2359 2.23662,-4.83384 5.79146,-8.44112 10.52546,-10.68071 12.41716,-5.87438 26.39322,1.74854 29.01178,15.82383 l 0.48972,2.63231 -10.50489,0.19611 -10.5049,0.19611 v 3.18198 3.18198 l 10.42983,0.19568 10.42982,0.19568 v 3.16308 3.16308 h -9.41079 c -11.03565,0 -12.02237,0.39076 -11.67718,4.62439 l 0.22832,2.80023 10.42983,0.19568 10.42982,0.19568 v 3.16308 3.16307 h -9.75807 c -6.6468,0 -10.02862,0.27055 -10.6066,0.84853 -1.27545,1.27545 -1.07997,5.98242 0.26996,6.50044 0.61517,0.23607 5.40256,0.42921 10.63864,0.42921 h 9.52015 l -0.46647,2.65165 c -0.69338,3.94143 -2.64473,8.05658 -5.20076,10.96773 -4.96826,5.65854 -14.5921,8.17693 -21.62592,5.65912 z"
           id="path116723-9"
           transform="scale(0.26458333)" />
      </g>
      <path
         style="fill:none;stroke:#04376b;stroke-width:1.32292;stroke-linecap:round;stroke-linejoin:round;stroke-miterlimit:4;stroke-dasharray:1.32292, 2.64583;stroke-dashoffset:0;stroke-opacity:0.956863"
         d="M 31.727058,37.40991 49.155104,54.505754"
         id="path119396"
         sodipodi:nodetypes="cc" />
      <path
         style="display:inline;fill:none;stroke:#04376b;stroke-width:1.32292;stroke-linecap:round;stroke-linejoin:round;stroke-miterlimit:4;stroke-dasharray:1.32292, 2.64583;stroke-dashoffset:0;stroke-opacity:0.956863"
         d="M 100.44227,37.053924 83.014214,54.149768"
         id="path119396-9"
         sodipodi:nodetypes="cc" />
      <path
         style="display:inline;fill:none;stroke:#04376b;stroke-width:1.32292;stroke-linecap:round;stroke-linejoin:round;stroke-miterlimit:4;stroke-dasharray:1.32292, 2.64583;stroke-dashoffset:0;stroke-opacity:0.956863"
         d="m 66.362475,83.483694 0.06383,16.352582"
         id="path119396-9-1"
         sodipodi:nodetypes="cc" />
    </g>
  </g>
</svg>
